…
Number of aisles and aisles with most items ordered

``` r
instacart %>%
  count(aisle, n_distinct = n_distinct(aisle))%>%
  arrange(desc(n)) 
```

    ## # A tibble: 134 x 3
    ##    aisle                         n_distinct      n
    ##    <chr>                              <int>  <int>
    ##  1 fresh vegetables                     134 150609
    ##  2 fresh fruits                         134 150473
    ##  3 packaged vegetables fruits           134  78493
    ##  4 yogurt                               134  55240
    ##  5 packaged cheese                      134  41699
    ##  6 water seltzer sparkling water        134  36617
    ##  7 milk                                 134  32644
    ##  8 chips pretzels                       134  31269
    ##  9 soy lactosefree                      134  26240
    ## 10 bread                                134  23635
    ## # … with 124 more rows
…
    ## [1] "Monday"    "Tuesday"   "Wednesday" "Thursday"  "Friday"    "Saturday" 
    ## [7] "Sunday"

``` r
accel_data %>%
  mutate(
    weekend_v_weekday = case_when(
      day < 6 ~ "weekday",
      day >= 6 ~ "weekend",
      TRUE      ~ ""
    ))
```

    ## # A tibble: 35 x 1,444
    ##     week day_id day   activity_1 activity_2 activity_3 activity_4
    ##    <dbl>  <dbl> <chr>      <dbl>      <dbl>      <dbl>      <dbl>
    ##  1     1      1 Frid…       88.4       82.2       64.4       70.0
    ##  2     1      2 Mond…        1          1          1          1  
    ##  3     1      3 Satu…        1          1          1          1  
    ##  4     1      4 Sund…        1          1          1          1  
    ##  5     1      5 Thur…       47.4       48.8       46.9       35.8
    ##  6     1      6 Tues…       64.8       59.5       73.7       45.7
    ##  7     1      7 Wedn…       71.1      103.        68.5       45.4
    ##  8     2      8 Frid…      675        542       1010        779  
    ##  9     2      9 Mond…      291        335        393        335  
    ## 10     2     10 Satu…       64         11          1          1  
    ## # … with 25 more rows, and 1,437 more variables: activity_5 <dbl>,
    ## #   activity_6 <dbl>, activity_7 <dbl>, activity_8 <dbl>,
    ## #   activity_9 <dbl>, activity_10 <dbl>, activity_11 <dbl>,
    ## #   activity_12 <dbl>, activity_13 <dbl>, activity_14 <dbl>,
    ## #   activity_15 <dbl>, activity_16 <dbl>, activity_17 <dbl>,
    ## #   activity_18 <dbl>, activity_19 <dbl>, activity_20 <dbl>,
    ## #   activity_21 <dbl>, activity_22 <dbl>, activity_23 <dbl>,
    ## #   activity_24 <dbl>, activity_25 <dbl>, activity_26 <dbl>,
    ## #   activity_27 <dbl>, activity_28 <dbl>, activity_29 <dbl>,
…
